…
    These can be used to find relevant “rights”, “principles”, and other
    relevant stuff.

    ``` r
    descriptors |> 
      filter(str_detect(to, "DERECHO")) |> 
      count(to, sort = TRUE)
    #> # A tibble: 803 × 2
    #>    to                                         n
    #>    <chr>                                  <int>
    #>  1 DERECHO A LA SALUD                      1680
    #>  2 DERECHO DE PETICION                     1098
    #>  3 DERECHO A LA IGUALDAD                    548
    #>  4 DERECHO A LA EDUCACION                   497
    #>  5 DERECHO A LA SEGURIDAD SOCIAL            486
    #>  6 DERECHO AL MINIMO VITAL DEL TRABAJADOR   445
    #>  7 DERECHOS FUNDAMENTALES                   315
    #>  8 DERECHO AL MINIMO VITAL DEL PENSIONADO   308
    #>  9 DERECHO AL MINIMO VITAL                  284
    #> 10 DERECHO A LA VIDA                        258
    #> # … with 793 more rows

    descriptors |> 
      filter(str_detect(to, "PRINCIPIO")) |> 
      count(to, sort = TRUE)
    #> # A tibble: 308 × 2
    #>    to                                                                          n
    #>    <chr>                                                                   <int>
    #>  1 PRINCIPIO DE IGUALDAD                                                     298
    #>  2 PRINCIPIO DE UNIDAD DE MATERIA                                            237
    #>  3 PRINCIPIO DE SUBSIDIARIEDAD DE LA ACCION DE TUTELA                        193
    #>  4 PRINCIPIO DE SUBSIDIARIEDAD E INMEDIATEZ EN LA ACCION DE TUTELA           157
    #>  5 PRINCIPIO PRO ACTIONE EN DEMANDA DE INCONSTITUCIONALIDAD                  153
    #>  6 PRINCIPIO DE CONTINUIDAD EN EL SERVICIO DE SALUD                          140
    #>  7 PRINCIPIO DE INMEDIATEZ                                                   133
    #>  8 PRINCIPIO DE SUBSIDIARIEDAD COMO REQUISITO DE PROCEDIBILIDAD DE LA ACC…   127
    #>  9 PRINCIPIO DE LA BUENA FE                                                  122
    #> 10 ACCION DE TUTELA Y PRINCIPIO DE INMEDIATEZ                                104
    #> # … with 298 more rows
    ```
…
